<?xml version="1.0" encoding="UTF-8"?>
<session version="1.0">
<refactoring comment="Rename local variable &apos;stringId&apos; in &apos;model.implementation.SemanticLinkedDataResource.SemanticLinkedDataResourceImpl.SemanticLinkedDataResourceImpl(...)&apos; to &apos;id&apos;&#x0A;- Original project: &apos;agraph-4.14.1-client-java&apos;&#x0A;- Original element: &apos;model.implementation.SemanticLinkedDataResource.SemanticLinkedDataResourceImpl.SemanticLinkedDataResourceImpl(String).stringId&apos;&#x0A;- Renamed element: &apos;stringId&apos;&#x0A;- Update references to refactored element" description="Rename local variable &apos;stringId&apos;" id="org.eclipse.jdt.ui.rename.local.variable" input="/src&lt;model.implementation.SemanticLinkedDataResource{SemanticLinkedDataResourceImpl.java[SemanticLinkedDataResourceImpl~SemanticLinkedDataResourceImpl~QString;@stringId!1210!1224!1217!1224!QString;!0!true" name="id" references="true" stamp="1427147118393" version="1.0"/>
</session>